<!DOCTYPE svg PUBLIC "-//W3C//DTD SVG 1.1//EN" "http://www.w3.org/Graphics/SVG/1.1/DTD/svg11.dtd">
<!-- Uploaded to: SVG Repo, www.svgrepo.com, Transformed by: SVG Repo Mixer Tools -->
<svg height="800px" width="800px" version="1.1" id="Layer_1" xmlns="http://www.w3.org/2000/svg" xmlns:xlink="http://www.w3.org/1999/xlink" viewBox="0 0 496.156 496.156" xml:space="preserve" fill="#000000">
<g id="SVGRepo_bgCarrier" stroke-width="0"/>
<g id="SVGRepo_tracerCarrier" stroke-linecap="round" stroke-linejoin="round"/>
<g id="SVGRepo_iconCarrier"> <path style="fill:#ffffff;" d="M0,248.08C0,111.06,111.07,0.002,248.074,0.002c137.014,0,248.082,111.059,248.082,248.078 c0,137.005-111.068,248.074-248.082,248.074C111.07,496.154,0,385.085,0,248.08z"/> <path style="fill:#ffffff;" d="M357.078,124.078h-218c-8.283,0-15,6.716-15,15v218c0,8.284,6.717,15,15,15h218 c8.285,0,15-6.716,15-15v-218C372.078,130.794,365.363,124.078,357.078,124.078z"/> <path style="fill:#ff0000;" d="M277.041,248.08l72.529-84.195c7.91-9.182,6.875-23.041-2.311-30.951 c-9.172-7.904-23.031-6.877-30.947,2.305l-68.236,79.213l-68.228-79.214c-7.91-9.188-21.771-10.215-30.955-2.305 c-9.186,7.91-10.213,21.77-2.303,30.951l72.521,84.195l-72.521,84.193c-7.91,9.182-6.883,23.041,2.303,30.951 c4.143,3.568,9.242,5.318,14.316,5.318c6.162,0,12.295-2.586,16.639-7.625l68.229-79.211l68.236,79.211 c4.338,5.041,10.471,7.625,16.637,7.625c5.07,0,10.168-1.75,14.311-5.318c9.186-7.91,10.221-21.77,2.311-30.951L277.041,248.08z"/> </g>
</svg>