Цели Курсовой работы
    - практические навыки в применении современных технологий разработки ПО
Методические материалы:
    - методичка
    - лекции
    - семинары
    - лабы?
Результаты работы:
    - работающее ПО (программа, сайт и т.п.)
    - отчёт в формате "отчёта по НИР" (ГОСТ 32....), от 20 стр.
Сдача:
    - комиссия
Портал:
    - перечень тем, их описания, и контактов
Направления работы:
    1. Применение архитектуры микросервисов:
        а) темы:
            - "условный стартап"
            - онлайн игра
            - обсудим...
        б) условия:
            - 1-4 человека.
            - от 3х микросервисов
            - брокер запросов
            - Docker (или аналог)
            - ОС - любая
            - система управления контентом
            - автоматизация развёртывания (Deploy pipeline)
            - DevOps - не нужен! Отразить в отчёте, как перспективу, пояснив, каким образом можно достич.
            - ЯП - любой.
        в) задачи:
            - подготовка материалов для курса СТРПО
            - подготовка материалов для SIMODO
            - и др.
    2. Участие в проекте SIMODO
        а) темы:
            -
        б) условия:
            -
        в) задачи:
            -
    3. По предварительной договорённости (с.т.р.ПО)
        а) темы:
            - по договорённости
        б) условия:
            - по договорённости
        в) задачи:
            - получение опыта для выполняющего работу
            - подготовка материалов для курса СТРПО
            - и др.
    4. "Практикум на 34"?
        -